Sex,Equipment,Division,WeightClassKg,Name,BodyweightKg,Best3SquatKg,Best3BenchKg,Best3DeadliftKg,TotalKg,Event,Place
F,Raw,Amateur Open,52,Alex Butler,50.89,70.31,47.63,97.52,215.46,SBD,1
F,Raw,Crossfit,75,Victoria Chang,73.75,97.52,36.29,90.72,224.53,SBD,1
F,Wraps,Amateur Submaster 33-39,67.5,Tiffany Martin,63.14,120.2,43.09,104.33,267.62,SBD,1
F,Raw,Amateur Junior 20-23,67.5,Lauren Griffith,66.86,74.84,38.56,113.4,226.8,SBD,1
F,Raw,Amateur Open,67.5,Shannon Lynch,66.68,102.06,56.7,133.81,292.57,SBD,1
F,Wraps,Amateur Teen 18-19,75,Sarayah Politi,71.12,124.74,52.16,129.27,306.17,SBD,1
F,Wraps,Pro Open,75,Yael Nelson,70.85,136.08,86.18,167.83,390.09,SBD,1
F,Raw,Amateur Junior 20-23,110+,Rachel Black,112.13,149.69,49.9,176.9,376.48,SBD,1
M,Raw,Amateur Teen 18-19,60,Glen Pfleegor Jr,57.52,99.79,54.43,140.61,294.84,SBD,1
M,Raw,Amateur Open,60,Glen Pfleegor Jr,57.52,99.79,54.43,140.61,294.84,SBD,1
M,Wraps,Amateur Junior 20-23,75,Darren McGlaughlin,74.03,172.37,136.08,215.46,523.9,SBD,1
M,Wraps,Amateur Teen 18-19,75,Matthew Hambacher,72.67,151.95,102.06,183.7,437.72,SBD,1
M,Raw,Amateur Junior 20-23,82.5,Cody Hartlaub,80.56,158.76,138.35,213.19,510.29,SBD,1
M,Raw,Amateur Open,82.5,Steven Valanoski,80.38,165.56,133.81,206.38,505.76,SBD,3
M,Raw,Amateur Open,82.5,Michael Richie,81.74,197.31,133.81,231.33,562.45,SBD,2
M,Raw,Amateur Open,82.5,Ian Titus,81.37,199.58,149.69,238.14,587.4,SBD,1
M,Raw,Crossfit,82.5,Bill Freyberger,77.75,165.56,113.4,219.99,498.95,SBD,1
M,Raw,Pro Master 40-44,82.5,Shay Larrisey,81.37,240.4,145.15,272.16,657.71,SBD,1
M,Wraps,Amateur Junior 20-23,82.5,Dominic Cristillo,81.19,154.22,136.08,226.8,517.1,SBD,3
M,Wraps,Amateur Junior 20-23,82.5,Joshua M Hendrickson,81.37,192.78,129.27,231.33,553.38,SBD,2
M,Wraps,Amateur Junior 20-23,82.5,Alex Wiley,79.56,188.24,138.35,249.48,576.06,SBD,1
M,Wraps,Amateur Teen 18-19,82.5,Francis Ferrara,77.93,181.44,120.2,199.58,501.22,SBD,2
M,Wraps,Amateur Teen 18-19,82.5,Johann Lara,80.29,213.19,140.61,251.74,605.55,SBD,1
M,Wraps,Pro Junior 20-23,82.5,Ryan Macarico,81.92,265.35,190.51,276.69,732.55,SBD,1
M,Wraps,Pro Open,82.5,Ryan Macarico,81.92,265.35,190.51,276.69,732.55,SBD,1
M,Raw,Amateur Junior 20-23,90,Jordan McGowan,88.9,181.44,129.27,213.19,523.9,SBD,1
M,Raw,Amateur Master 40-44,90,Fred Cooke,87.54,163.29,102.06,176.9,442.25,SBD,1
M,Raw,Amateur Teen 18-19,90,Dakota Stearns,89.45,172.37,122.47,181.44,476.27,SBD,1
M,Raw,Amateur Teen 16-17,90,Caleb Roth,85.91,183.7,151.95,210.92,546.58,SBD,1
M,Raw,Pro Open,90,Johnny Do,89.36,285.76,208.65,306.17,800.59,SBD,1
M,Wraps,Amateur Junior 20-23,90,Marcus Klingler,88.99,201.85,129.27,233.6,564.72,SBD,2
M,Wraps,Amateur Junior 20-23,90,Rob Thomas,88.27,226.8,167.83,254.01,648.64,SBD,1
M,Wraps,Amateur Open,90,Brandon McConnell,88.63,192.78,102.06,201.85,496.68,SBD,1
M,Wraps,Amateur Submaster 33-39,90,Michael Secora,87.63,192.78,104.33,210.92,508.02,SBD,1
F,Raw,Amateur Junior 20-23,60,Victoria Kuntz,58.88,,56.7,,56.7,B,1
F,Raw,Amateur Junior 20-23,75,Kelsey Gavlick,73.66,,56.7,,56.7,B,1
M,Raw,Amateur Open,75,Troy Cannon,73.75,,138.35,,138.35,B,1
M,Raw,Amateur Junior 20-23,75,Tylor Fischer,72.94,,117.93,,117.93,B,1
M,Raw,Amateur Master 50-54,90,Stephen Valenzano,89.63,,131.54,,131.54,B,1
M,Raw,Amateur Master 45-49,90,Charlie Miriello,89.09,,147.42,,147.42,B,1
M,Raw,Amateur Master 60-64,90,Howard Aaron,86.55,,145.15,,145.15,B,1
F,Raw,Amateur Open,67.5,Allison Souchuck,66.22,,52.16,99.79,151.95,BD,1
F,Raw,Amateur Master 45-49,90,Kathryn Welcheck,86.36,,52.16,77.11,129.27,BD,1
M,Raw,Amateur Open,75,Nicholas Peck,74.21,,163.29,249.48,412.77,BD,1
M,Raw,Pro Junior 20-23,90,Nate Miriello,89.81,,163.29,260.82,424.11,BD,1
M,Raw,Amateur Junior 20-23,90,Pat Malloy,89.09,,163.29,231.33,394.63,BD,1
M,Multi-ply,Pro Submaster 33-39,90,Mike Wolfley,89.9,,317.51,256.28,573.79,BD,1
F,Raw,Amateur Open,75,Rachel Solomon,69.04,,,158.76,158.76,D,1
M,Raw,Amateur Master 45-49,75,Kevin Dorman,74.57,,,167.83,167.83,D,1
M,Multi-ply,Military Amateur Open,100,Michael Welcheck,96.07,328.85,226.8,206.38,762.04,SBD,1
M,Raw,Amateur Junior 20-23,100,Jasper Ocker III,99.16,185.97,149.69,213.19,548.85,SBD,2
M,Raw,Amateur Junior 20-23,100,Francis Ziarkoski,98.61,158.76,131.54,260.82,551.11,SBD,1
M,Raw,Amateur Open,100,Francis Ziarkoski,98.61,158.76,131.54,260.82,551.11,SBD,1
M,Raw,Amateur Submaster 33-39,100,Michael Scatton,99.79,195.04,145.15,226.8,566.99,SBD,1
M,Wraps,Amateur Junior 20-23,100,Daniel Crowe,96.34,219.99,142.88,240.4,603.28,SBD,1
M,Wraps,Amateur Open,100,Leland Snaider,99.16,197.31,129.27,210.92,537.51,SBD,1
M,Wraps,Pro Master 50-54,100,Michael Sarnak,93.62,249.48,111.13,251.74,612.35,SBD,1
M,Single-ply,Pro Master 50-54,100,Craig Barroll,93.89,181.44,151.95,226.8,560.19,SBD,1
M,Multi-ply,Pro Submaster 33-39,110,Ernie Heddings,101.79,226.8,215.46,272.16,714.41,SBD,1
M,Raw,Amateur Junior 20-23,110,Chris Ragos,109.13,238.14,136.08,260.82,635.03,SBD,1
M,Raw,Pro Junior 20-23,110,Colton Collier,101.7,249.48,158.76,272.16,680.39,SBD,1
M,Wraps,Pro Junior 20-23,110,Ryan Tablado,104.14,244.94,147.42,206.38,598.74,SBD,2
M,Raw,Pro Open,110,Chuck Brightbill,107.32,272.16,151.95,322.05,746.16,SBD,2
M,Wraps,Amateur Junior 20-23,110,Carrington Kreinbrook,106.96,208.65,133.81,238.14,580.6,SBD,1
M,Wraps,Amateur Submaster 33-39,110,Shaun Zane,106.87,174.63,138.35,204.12,517.1,SBD,1
M,Wraps,Pro Junior 20-23,110,Nick Molteni,107.14,281.23,181.44,319.78,782.45,SBD,1
M,Wraps,Pro Open,110,Aaron Fromm,100.61,226.8,197.31,283.5,707.6,SBD,2
M,Wraps,Pro Open,110,Nick Molteni,107.14,281.23,181.44,319.78,782.45,SBD,1
M,Raw,Pro Open,110,Paul Moser,107.86,294.84,188.24,312.98,796.05,SBD,1
M,Multi-ply,Pro Open,125,Chris Della Fave,116.57,442.25,331.12,362.87,1136.25,SBD,1
M,Raw,Amateur Junior 20-23,125,Zach Stiner,115.85,181.44,136.08,226.8,544.31,SBD,1
M,Raw,Amateur Open,125,Christopher Cardoni,120.66,226.8,195.04,265.35,687.19,SBD,1
M,Wraps,Amateur Junior 20-23,125,Gerald Hall II,115.03,163.29,161.03,226.8,551.11,SBD,1
M,Wraps,Amateur Open,125,Phil Trapani,121.2,183.7,124.74,208.65,517.1,SBD,2
M,Wraps,Amateur Open,125,Jarrod Hardin,119.66,215.46,124.74,233.6,573.79,SBD,1
M,Wraps,Police Pro Open,125,Jeff Cobb,123.65,308.44,210.92,292.57,811.93,SBD,1
M,Raw,Military Amateur Open,140,Matthew Wilk,126.46,249.48,181.44,274.42,705.34,SBD,1
M,Raw,Amateur Open,100,Noah Jones,92.35,,156.49,,156.49,B,1
M,Raw,Military Amateur Open,100,Michael Welcheck,96.07,,113.4,,113.4,B,1
M,Multi-ply,Amateur Master 55-59,100,Walter Welcheck,98.61,,172.37,,172.37,B,1
M,Raw,Pro Open,125,Paul Dougal,122.2,,233.6,,233.6,B,1
M,Raw,Amateur Master 50-54,125,Ernest F Relyea,116.75,,148.55,,148.55,B,1
M,Raw,Amateur Junior 20-23,125,Brandon Rink,124.19,,145.15,235.87,381.02,BD,1
M,Raw,Amateur Open,140+,Will Schwabenbauer,177.26,,204.12,226.8,430.91,BD,1
M,Multi-ply,Pro Open,100,Marcus Coulter,97.3,,,317.51,317.51,D,1
