Sex,Equipment,Division,Age,WeightClassKg,Name,BodyweightKg,Best3SquatKg,Best3BenchKg,Best3DeadliftKg,TotalKg,Event,Place
F,Raw,Amateur Open,,52,Veronique Piche,48.53,70.31,40.82,99.79,210.92,SBD,1
F,Raw,Amateur Open,,56,Shanee Cesard,55.7,106.59,52.16,138.35,297.1,SBD,1
F,Wraps,Amateur Junior 20-23,,60,Alexis OBryan,57.61,99.79,47.63,104.33,251.74,SBD,1
F,Raw,Amateur Junior 20-23,,67.5,Brianna Sleeman,66.22,124.74,61.23,151.95,337.93,SBD,1
F,Raw,Pro Master 40-44,,67.5,Hilda Siegel,66.86,120.2,97.52,145.15,362.87,SBD,1
F,Raw,Amateur Open,,67.5,Kit Chokly,66.95,108.86,72.57,145.15,326.59,SBD,1
F,Raw,Amateur Teen 14-15,,67.5,Piper Nichol,67.31,77.11,40.82,95.25,213.19,SBD,1
F,Wraps,Amateur Junior 20-23,,75,Samantha Crepin,72.57,97.52,49.9,106.59,254.01,SBD,1
F,Wraps,Amateur Master 45-49,,75,Trycia Simpson,73.03,104.33,68.04,149.69,322.05,SBD,1
F,Wraps,Amateur Submaster 33-39,,75,Michelle Derouin,73.21,127.01,61.23,129.27,317.51,SBD,1
F,Raw,Amateur Teen 14-15,,75,Emilee Harrison,70.03,77.11,43.09,122.47,242.67,SBD,1
F,Wraps,Amateur Master 40-44,,82.5,Mary Jo Babcock,76.11,92.99,68.04,138.35,299.37,SBD,1
F,Wraps,Amateur Master 45-49,,82.5,Jodie Villeneuve,80.01,105.46,57.83,140.61,303.91,SBD,1
F,Raw,Amateur Open,,82.5,Melanie Michaud,82.01,104.33,51.03,136.08,291.43,SBD,1
F,Raw,Amateur Submaster 33-39,,110+,Samantha Maxwell,119.93,113.4,56.7,124.74,294.84,SBD,1
M,Wraps,Amateur Youth,12,67.5,Max Berger,66.77,102.06,61.23,113.4,276.69,SBD,1
M,Raw,Amateur Junior 20-23,,75,Zach Last,70.49,129.27,106.59,183.7,419.57,SBD,1
M,Wraps,Elite Open,,75,Sharif El-Kady,73.94,265.35,170.1,276.69,712.14,SBD,1
M,Raw,Amateur Submaster 33-39,,75,Arthur Chan,74.03,183.7,147.42,215.46,546.58,SBD,1
M,Wraps,Amateur Open,,75,Casey McGinnis,73.75,120.2,70.31,145.15,335.66,SBD,2
M,Wraps,Amateur Open,,75,Brent Linker,74.03,188.24,111.13,222.26,521.63,SBD,1
M,Wraps,Pro Junior 20-23,,82.5,Bilal Elbarrani,79.56,265.35,136.08,283.5,684.92,SBD,1
M,Wraps,Amateur Junior 20-23,,82.5,Anthony Antinarella,81.28,170.1,133.81,215.46,519.36,SBD,1
M,Raw,Amateur Master 40-44,,82.5,Chris Nugteren,80.29,161.03,120.2,199.58,480.81,SBD,1
M,Wraps,Amateur Open,,82.5,Matt Best,80.74,165.56,108.86,183.7,458.13,SBD,5
M,Wraps,Amateur Open,,82.5,Brent Eritou,80.83,167.83,104.33,192.78,464.93,SBD,4
M,Wraps,Amateur Open,,82.5,Zachary Carcasole,80.74,172.37,129.27,204.12,505.76,SBD,3
M,Wraps,Amateur Open,,82.5,Nick Haince,81.28,188.24,131.54,219.99,539.77,SBD,2
M,Wraps,Amateur Open,,82.5,Cody Hand,79.2,183.7,122.47,274.42,580.6,SBD,1
M,Wraps,Amateur Open,,82.5,Jason Rossi,81.1,188.24,,204.12,,SBD,DQ
M,Raw,Amateur Teen 14-15,,90,Brenden Lockett,87.09,142.88,63.5,195.04,401.43,SBD,1
M,Raw,Amateur Teen 18-19,,100,Tom Cullingworth,99.34,172.37,104.33,197.31,474,SBD,1
F,Raw,Amateur Master 55-59,,75,Karyn Lessard,73.57,,49.9,,49.9,B,1
M,Single-ply,Amateur Submaster 33-39,,75,Arthur Chan,74.03,,183.7,,183.7,B,1
M,Raw,Amateur Teen 14-15,,90,Brenden Lockett,87.09,142.88,,,142.88,S,1
M,Raw,Amateur Teen 14-15,,90,Brenden Lockett,87.09,,,195.04,195.04,D,1
F,Raw,Pro Master 40-44,,67.5,Rebecca Pitre,66.95,,65.77,127.01,192.78,BD,1
M,Raw,Amateur Junior 20-23,,90,Graham Bird,87.82,208.65,147.42,238.14,594.21,SBD,1
M,Raw,Amateur Master 45-49,,90,Michel Fortin,89.63,131.54,,170.1,,SBD,DQ
M,Wraps,Amateur Master 50-54,,90,Sean Finn,87.54,124.74,111.13,174.63,410.5,SBD,1
M,Wraps,Amateur Open,,90,Wade Burton,86.64,181.44,106.59,183.7,471.74,SBD,1
M,Raw,Amateur Open,,90,Phil Hurtubise,88.45,165.56,129.27,208.65,503.49,SBD,1
M,Wraps,Amateur Submaster 33-39,,90,Dan Grefford,89.72,183.7,129.27,226.8,539.77,SBD,1
M,Multi-ply,Pro Submaster 33-39,,90,Brett Burton,87.09,272.16,158.76,226.8,657.71,SBD,1
M,Wraps,Pro Junior 20-23,,100,Jean-Eric Lapensee,98.43,317.51,197.31,324.32,839.15,SBD,1
M,Wraps,Amateur Open,,100,Carson Stewart,98.16,190.51,117.93,215.46,523.9,SBD,1
M,Raw,Amateur Open,,100,Brandon Evans,92.99,167.83,108.86,204.12,480.81,SBD,3
M,Raw,Amateur Open,,100,Mike Germain,98.34,204.12,120.2,226.8,551.11,SBD,2
M,Raw,Amateur Open,,100,Patrick Dumais,98.88,204.12,145.15,272.16,621.42,SBD,1
M,Wraps,Pro Open,,100,Pierre-Philip Martin,99.34,192.78,120.2,238.14,551.11,SBD,1
M,Raw,Amateur Submaster 33-39,,100,Ryan Falls,98.43,138.35,115.67,201.85,455.86,SBD,1
M,Wraps,Amateur Junior 20-23,,110,Tyler Harrison,102.06,204.12,115.67,263.08,582.87,SBD,1
M,Raw,Pro Master 40-44,,110,Ryan Silverson,106.23,233.6,188.24,226.8,648.64,SBD,1
M,Wraps,Pro Master 40-44,,110,Sean Murphy,103.6,238.14,136.08,247.21,621.42,SBD,1
M,Raw,Amateur Open,,110,Daniel Fraser,108.77,185.97,104.33,215.46,505.76,SBD,1
M,Wraps,Amateur Open,,110,Alex Martino,105.41,188.24,117.93,233.6,539.77,SBD,2
M,Wraps,Amateur Open,,110,Peter Hossack,101.88,242.67,133.81,272.16,648.64,SBD,1
M,Wraps,Amateur Open,,125,Maxim Polevik,116.3,213.19,115.67,222.26,551.11,SBD,2
M,Wraps,Amateur Open,,125,Matt Turner,117.48,199.58,151.95,215.46,566.99,SBD,1
M,Wraps,Pro Open,,125,Mathew Bertrand,115.12,256.28,188.24,260.82,705.34,SBD,1
M,Wraps,Amateur Master 45-49,,140,Stéphane Morrissette,126.92,213.19,167.83,240.4,621.42,SBD,1
M,Wraps,Amateur Open,,140,Derrick Chusroskie,126.64,142.88,111.13,163.29,417.3,SBD,1
M,Raw,Pro Submaster 33-39,,140,Bordeleau Mathieu,127.91,226.8,163.29,272.16,662.24,SBD,1
M,Wraps,Amateur Submaster 33-39,,140,Brian Paquette,130.73,170.1,140.61,201.85,512.56,SBD,1
M,Wraps,Amateur Open,,140+,Adam Baker,161.48,151.95,99.79,208.65,460.4,SBD,1
M,Raw,Pro Master 45-49,,140+,John Kolesar,155.49,181.44,147.42,226.8,555.65,SBD,1
M,Raw,Pro Open,,140+,Craig Houghton,149.69,299.37,185.97,319.78,805.13,SBD,1
M,Wraps,Pro Submaster 33-39,,140+,Aaron Runnalls,178.44,288.03,233.6,294.84,816.47,SBD,1
M,Multi-ply,Amateur Open,,90,Martin Lebrun,88.81,,,,,B,DQ
M,Multi-ply,Pro Master 45-49,,100,Scott MacDiarmid,96.62,,260.82,,,B,DQ
M,Single-ply,Pro Master 45-49,,100,Scott MacDiarmid,96.62,,170.1,,,B,DQ
M,Raw,Amateur Master 45-49,,100,Richard R. Talbot,99.61,,167.83,,,B,DQ
M,Raw,Pro Submaster 33-39,,100,David Clavette,96.62,,179.17,,,B,DQ
M,Raw,Amateur Master 45-49,,110,Lee Levac,103.42,,181.44,,,B,DQ
M,Raw,Pro Master 45-49,,140+,Curd Hos,170.19,,249.48,,,B,DQ
M,Raw,Amateur Open,,90,Daniel Laporte,87.36,,115.67,226.8,342.46,BD,1
M,Raw,Pro Open,,90,Steve Perkins,88.36,,167.83,249.48,417.3,BD,1
M,Raw,Amateur Master 40-44,,100,Adam Badeen,98.57,,106.59,158.76,265.35,BD,1
M,Raw,Pro Open,,125,Josh Hannah,118.39,,163.29,260.82,424.11,BD,1
M,Raw,Amateur Submaster 33-39,,140,Max Boivin,139.43,,136.08,219.99,356.07,BD,1
M,Raw,Amateur Submaster 33-39,,90,Dan Grefford,89.72,,129.27,,129.27,B,1
M,Raw,Amateur Submaster 33-39,,90,Dan Grefford,89.72,,,226.8,226.8,D,1
M,Wraps,Amateur Submaster 33-39,,90,Dan Grefford,89.72,183.7,,,183.7,S,1
