Place,WeightClassKg,Name,Equipment,Team,BodyweightKg,Squat1Kg,Squat2Kg,Squat3Kg,Best3SquatKg,Bench1Kg,Bench2Kg,Bench3Kg,Best3BenchKg,Deadlift1Kg,Deadlift2Kg,Deadlift3Kg,Best3DeadliftKg,TotalKg,Division,Sex,Event
1,74,Truls Homleid Johansen,Raw,Hommersåk AK,73.15,120,125,130,130.0,125,-130,-132.5,125.0,175,185,190,190.0,445,Junior 19-23,M,SBD
1,93,Tarald Knudsen Øvrebø,Raw,Ganddal AK,86.20,190,205,-212.5,205.0,120,125,127.5,127.5,200,220,,220.0,552.5,Junior 19-23,M,SBD
2,93,Kurt Andre Lund,Raw,Ganddal AK,91.85,120,130,140,140.0,75,80,-90,80.0,160,175,185,185.0,405,Junior 19-23,M,SBD
1,105,Daniel Lima Grøtting,Single-ply,Ganddal AK,95.60,200,215,225,225.0,-150,150,155,155.0,200,215,220,220.0,600,Junior 19-23,M,SBD
1,120,Sebastian White,Single-ply,Ganddal AK,112.95,280,292.5,302.5,302.5,225,-230,230,230.0,270,292.5,300,300.0,832.5,Junior 19-23,M,SBD
2,120,Ivan Sigmundsen,Raw,Ganddal AK,114.60,185,195,200,200.0,115,122.5,-130,122.5,220,235,-245,235.0,557.5,Junior 19-23,M,SBD
1,120,Georg Husveg,Raw,Ganddal AK,113.40,100,115,125,125.0,125,130,-135,130.0,140,,,140.0,395,Master 40-49,M,SBD
1,93,Arnfinn Skadsem,Raw,Ganddal AK,92.60,-120,125,132.5,132.5,85,92.5,95,95.0,130,140,150,150.0,377.5,Master 60-69,M,SBD
