Place,Name,BirthYear,Country,BodyweightKg,Squat1Kg,Squat2Kg,Squat3Kg,Best3SquatKg,Bench1Kg,Bench2Kg,Bench3Kg,Best3BenchKg,Deadlift1Kg,Deadlift2Kg,Deadlift3Kg,Best3DeadliftKg,TotalKg,WeightClassKg,Division,Event,Sex,Equipment
1,Alessia Rodina,1975,Italy,52,-135,135,145,145,62.5,-67.5,-67.5,62.5,135,145,-147.5,145,352.5,52,Open,SBD,F,Single-ply
2,Anja Weber,1980,Germany,52,95,-105,107.5,107.5,60,65,-70,65,100,110,117.5,117.5,290,52,Open,SBD,F,Single-ply
3,Mareen Wendlandt,1991,Germany,52,100,-110,110,110,50,-52.5,52.5,52.5,100,110,120,120,282.5,52,Open,SBD,F,Single-ply
1,Susse Hougaard,1984,Denmark,55.6,135,150,-157.5,150,100,110,115,115,142.5,-155,-155,142.5,407.5,56,Open,SBD,F,Single-ply
2,Susann Cichon,1987,Germany,54.05,-115,115,-122.5,115,60,-62.5,-62.5,60,137.5,147.5,155,155,330,56,Open,SBD,F,Single-ply
1,Eva Buxbom,1969,Denmark,58.9,-150,150,-155,150,-85,-85,85,85,145,155,-165,155,390,60,Open,SBD,F,Single-ply
2,Nicola Payne,1978,UK,59.6,130,-140,-140,130,72.5,-77.5,-77.5,72.5,160,170,175,175,377.5,60,Open,SBD,F,Single-ply
3,Mona Al-Haj,1979,Denmark,59.35,110,-125,125,125,60,65,-70,65,140,-155,-165,140,330,60,Open,SBD,F,Single-ply
1,Gillian Wright,1973,UK,67.2,170,180,190,190,105,-110,110,110,190,200,205,205,505,67.5,Open,SBD,F,Single-ply
2,Synnøve Lund,1972,Norway,67.35,175,185,195,195,100,105,110,110,162.5,170,175,175,480,67.5,Open,SBD,F,Single-ply
3,Kristina Kaas Hofmann,1981,Denmark,64.7,170,180,-185,180,-90,-90,90,90,170,185,190,190,460,67.5,Open,SBD,F,Single-ply
4,Elke Schreiber,1984,Germany,66.7,165,-175,-175,165,75,80,85,85,155,165,-170,165,415,67.5,Open,SBD,F,Single-ply
5,Veronica Opdal,1985,Norway,65.85,145,150,155,155,-85,85,90,90,150,160,165,165,410,67.5,Open,SBD,F,Single-ply
6,Katrine Holmegaard Bak,1981,Denmark,61.35,130,-140,140,140,75,82.5,-87.5,82.5,150,162.5,-165,162.5,385,67.5,Open,SBD,F,Single-ply
7,Judith Overbeek,1981,Netherlands,64.9,137.5,-147.5,-147.5,137.5,82.5,87.5,-92.5,87.5,130,137.5,140,140,365,67.5,Open,SBD,F,Single-ply
1,Marian Gibson,1964,UK,71,170,177.5,185,185,125,130,132.5,132.5,182.5,-192.5,-192.5,182.5,500,75,Open,SBD,F,Single-ply
2,Annette Pedersen,1968,Denmark,71.3,-160,160,-172.5,160,-120,-120,125,125,185,200,-217.5,200,485,75,Open,SBD,F,Single-ply
3,Lise Ejlertsen,1982,Denmark,67.85,-150,-160,165,165,85,-92.5,-92.5,85,155,162.5,172.5,172.5,422.5,75,Open,SBD,F,Single-ply
4,Carmen Sjardijn,1969,Netherlands,68.15,145,152.5,157.5,157.5,95,-100,-110,95,150,160,-170,160,412.5,75,Open,SBD,F,Single-ply
1,Marie Thornton,1981,UK,77.55,185,195,200,200,85,90,-95,90,170,180,185,185,475,82.5,Open,SBD,F,Single-ply
2,Martina Segerer,1980,Germany,80.05,140,150,-160,150,80,-87.5,87.5,87.5,170,-180,180,180,417.5,82.5,Open,SBD,F,Single-ply
DQ,Mieke v.d. Zwaag,1983,Netherlands,77.65,-140,-140,-140,,-75,-75,-75,,140,150,-160,150,,82.5,Open,SBD,F,Single-ply
1,Ielja Strik,1973,Netherlands,88.3,230,245,255,255,165,172.5,-177.5,172.5,220,230,-237.5,230,657.5,90,Open,SBD,F,Single-ply
2,Susan Hollands,1951,UK,83.85,165,175,182.5,182.5,80,85,90,90,155,165,-172.5,165,437.5,90,Open,SBD,F,Single-ply
1,Brenda van der Meulen,1978,Netherlands,107.45,210,225,230,230,150,-157.5,157.5,157.5,180,190,-195,190,577.5,90+,Open,SBD,F,Single-ply
1,Franco Giummarra,1950,Italy,55.65,175,190,-200,190,40,50,-60,50,190,205,-210,205,445,56,Open,SBD,M,Single-ply
DQ,Dario Dellaquila,1983,Italy,56.55,-160,-160,-160,,-100,,,,,,,,,60,Open,SBD,M,Single-ply
1,Jörg Müller,1966,Germany,73.95,280,290,-300,290,150,157.5,162.5,162.5,250,257.5,262.5,262.5,715,75,Open,SBD,M,Single-ply
2,James White,1984,UK,74.8,225,240,-250,240,160,167.5,170,170,260,270,275,275,685,75,Open,SBD,M,Single-ply
3,Marc Bielau,1986,Germany,70.35,235,250,-260,250,-145,145,152.5,152.5,230,245,-252.5,245,647.5,75,Open,SBD,M,Single-ply
4,Daniele Ghignoli,1977,Italy,73.85,235,240,-245,240,125,-130,-130,125,250,-265,,250,615,75,Open,SBD,M,Single-ply
1,Robert Palmer #2,1982,UK,81.25,-250,250,-272.5,250,-215,215,222.5,222.5,250,265,272.5,272.5,745,82.5,Open,SBD,M,Single-ply
2,Thomas Korell,1983,Germany,75.6,245,260,-267.5,260,150,157.5,162.5,162.5,230,240,250,250,672.5,82.5,Open,SBD,M,Single-ply
3,Pardeep Kailey,1983,Netherlands,76.9,240,250,-255,250,-150,-150,150,150,245,-252.5,-252.5,245,645,82.5,Open,SBD,M,Single-ply
1,Michael Jensen,1980,Denmark,89.15,305,-315,-320,305,162.5,-172.5,-172.5,162.5,280,290,292.5,292.5,760,90,Open,SBD,M,Single-ply
2,Joseph Bullock,1971,UK,89.65,285,300,307.5,307.5,-175,175,180,180,240,262.5,272.5,272.5,760,90,Open,SBD,M,Single-ply
3,Anne Bierma,1975,Netherlands,87.4,240,250,-260,250,155,-162.5,162.5,162.5,220,230,240,240,652,90,Open,SBD,M,Single-ply
4,Roger Piron,1960,Luxembourg,89.75,-215,-222.5,222.5,222.5,145,-150,-150,145,227.5,-240,-240,227.5,595,90,Open,SBD,M,Single-ply
DQ,Philip Watkins,1968,UK,89.45,-265,-265,-265,,165,-172.5,172.5,172.5,280,-302.5,,280,,90,Open,SBD,M,Single-ply
DQ,Fredrik Green,1974,Sweden,89.65,310,-320,-320,310,-195,-195,-195,,280,-282.5,-285,280,,90,Open,SBD,M,Single-ply
DQ,Alexander Kirketeig,1979,Norway,90,315,-325,-325,315,-212.5,-212.5,-212.5,,275,-290,-300,275,,90,Open,SBD,M,Single-ply
1,Anibal Manuel Coimbra Marques,1972,Luxembourg,98.55,345,355,-365,355,237.5,-242.5,-247.5,237.5,325,335,342.5,342.5,935,100,Open,SBD,M,Single-ply
2,Søren Mølgaard,1988,Denmark,99.45,300,320,335,335,210,220,-230,220,260,280,-300,280,835,100,Open,SBD,M,Single-ply
3,Pjotr van den Hoek,1972,Netherlands,92.45,285,300,307.5,307.5,-215,215,,215,270,287.5,295,295,817.5,100,Open,SBD,M,Single-ply
4,Marc Larsson,1982,Denmark,96.5,290,305,-315,305,170,-177.5,-182.5,170,270,290,-302.5,290,765,100,Open,SBD,M,Single-ply
5,Kim Dahl Hansen,1971,Denmark,98.9,285,-295,-295,285,190,-197.5,-197.5,190,290,-312.5,-312.5,290,765,100,Open,SBD,M,Single-ply
6,Matthias Simpig,1972,Germany,99.6,290,-305,-310,290,180,190,-200,190,270,285,-297.5,285,765,100,Open,SBD,M,Single-ply
7,Marcus Buttger,1990,Germany,97.45,280,290,-295,290,180,-185,-185,180,260,-270,,260,730,100,Open,SBD,M,Single-ply
1,Tor-Herman Omland,1977,Norway,109.6,340,352.5,370,370,255,265,-275,265,305,-312.5,,305,940,110,Open,SBD,M,Single-ply
2,Sune Bak,1974,Denmark,109.7,300,317.5,325,325,230,-240,245,245,275,290,300,300,870,110,Open,SBD,M,Single-ply
3,Mathias Kristensen,1985,Denmark,100.1,280,292.5,300,300,187.5,195,200,200,265,275,280,280,780,110,Open,SBD,M,Single-ply
4,Melis Van Floris,1981,Netherlands,101.5,245,265,275,275,180,190,200,200,235,255,260,260,735,110,Open,SBD,M,Single-ply
DQ,Rommie Zoethout,1973,Netherlands,107.3,240,250,260,260,-170,-180,-180,,265,280,290,290,,110,Open,SBD,M,Single-ply
1,Morten Sørig,1969,Denmark,124.85,-340,340,352.5,352.5,-220,220,-245,220,280,292.5,302.5,302.5,875,125,Open,SBD,M,Single-ply
2,Stephan Vorup,1973,Denmark,118.3,-330,340,-360,340,190,-197.5,197.5,197.5,290,305,315,315,852.5,125,Open,SBD,M,Single-ply
3,Eirik Jørgensen,1983,Norway,118.5,300,-307.5,-307.5,300,200,-207.5,-207.5,200,300,310,317.5,317.5,817.5,125,Open,SBD,M,Single-ply
4,Rudolf Küster,1955,Germany,121.2,275,287.5,297.5,297.5,115,122.5,-127.5,122.5,275,290,-302.5,290,710,125,Open,SBD,M,Single-ply
1,Olaf Dahl,1977,Norway,145.2,345,355,365,365,245,-255,255,255,340,360,,360,980,125+,Open,SBD,M,Single-ply
2,Andrew Thompson,1976,UK,140.7,300,315,325,325,247.5,255,-260,255,280,300,310,310,890,125+,Open,SBD,M,Single-ply
3,Francesco Pellizzoni,1977,Italy,127.4,-325,325,-340,325,190,200,-205,200,300,320,-330,320,845,125+,Open,SBD,M,Single-ply
