Event,Sex,Name,State,BodyweightKg,WeightClassKg,Division,Best3SquatKg,Best3BenchKg,Best3DeadliftKg,TotalKg,Equipment,Place
SBD,M,Steve Powell,MB,93.8,100,Open,287.5,192.5,310.0,790.0,Single-ply,1
SBD,F,Susan Haywood,MB,79.2,82.5,Master 2,120.0,77.5,120.0,317.5,Single-ply,1
SBD,F,Penha Andrade,MB,59.0,60,Master 1,105.0,75.0,135.0,315.0,Single-ply,1
SBD,M,Trevor Winfield,MB,115.0,125,Master 1,230.0,220.0,230.0,680.0,Single-ply,1
SBD,M,Justin Yakiwchuk,MB,125.6,125+,Junior,227.5,157.5,237.5,622.5,Single-ply,1
SBD,M,Guy Page,MB,121.9,125,Junior,250.0,195.0,290.0,735.0,Single-ply,1
B,M,Ed Dufour,MB,98.8,100,Open,,182.5,,182.5,Single-ply,1
B,F,Tina Gledhill,MB,91.0,90+,Master 1,,62.5,,62.5,Single-ply,1
